First Name,Last Name,Telephone,Age,City,Gross Pay,Tax Rate,,,,
Ben ,Hur,(204) 555-1212,1985,Winnipeg," $54,000.56 ",42.00%,,,,
Harry ,Potter,(403) 658-9468,30,Winnipeg," $200,000.48 ",42.00%,,,,
Loius,Vuitton,(546) 123-4567,90,Winnipeg," $600,000.23 ",42.00%,,,,
Mike,Tyson,(123) 999-7894,50,Winnipeg," $30,000.00 ",42.00%,,,,
Charles,Gregory,(204) 897-8254,45,Winnipeg," $60,000.00 ",42.00%,,,,
Ian,Tyson,(123) 999-7894,35,Winnipeg," $82,000.23 ",42.00%,,,,
Pepe,Roni,(204) 555-7878,25,Winnipeg," $24,000.56 ",42.00%,,,,
Ophelia,Payne,(589) 456-7894,40,Winnipeg," $80,000.00 ",42.00%,,,,
Anita,Shower,(204) 213-7845,50,Winnipeg," $15,000.00 ",42.00%,,,,
Gerry,Atric,(204) 894-8745,86,Winnipeg," $12,000.00 ",42.00%,,,,
,,,,,,,,,,
,,,,,,,,,,
,,,,,,,,,,
,,,,,,,,,,
,,,,,,,,,,
